Chapter 8 DPLYR | Data Analytics One - Class Materials and Lessons
…
8.5 Choosing columns: select, rename

# besides just using select() to pick columns...
flights %>% select(carrier, flight)

## # A tibble: 336,776 x 2
##    carrier flight
##    <chr>    <int>
##  1 UA        1545
##  2 UA        1714
##  3 AA        1141
##  4 B6         725
##  5 DL         461
##  6 UA        1696
##  7 B6         507
##  8 EV        5708
##  9 B6          79
## 10 AA         301
## # ... with 336,766 more rows

# ...you can use the minus sign to hide columns
flights %>% select(-month, -day)

## # A tibble: 336,776 x 17
##     year dep_time sched_dep_time dep_delay arr_time sched_arr_time arr_delay
##    <int>    <int>          <int>     <dbl>    <int>          <int>     <dbl>
##  1  2013      517            515         2      830            819        11
##  2  2013      533            529         4      850            830        20
##  3  2013      542            540         2      923            850        33
##  4  2013      544            545        -1     1004           1022       -18
##  5  2013      554            600        -6      812            837       -25
##  6  2013      554            558        -4      740            728        12
##  7  2013      555            600        -5      913            854        19
##  8  2013      557            600        -3      709            723       -14
##  9  2013      557            600        -3      838            846        -8
## 10  2013      558            600        -2      753            745         8
## # ... with 336,766 more rows, and 10 more variables: carrier <chr>,
## #   flight <int>, tailnum <chr>, origin <chr>, dest <chr>, air_time <dbl>,
## #   distance <dbl>, hour <dbl>, minute <dbl>, time_hour <dttm>

# hide a range of columns
flights %>% select(-(dep_time:arr_delay))

# hide any column with a matching name
flights %>% select(-contains("time"))

# pick columns using a character vector of column names
cols <- c("carrier", "flight", "tailnum")
flights %>% select(one_of(cols))

## # A tibble: 336,776 x 3
##    carrier flight tailnum
##    <chr>    <int> <chr>  
##  1 UA        1545 N14228 
##  2 UA        1714 N24211 
##  3 AA        1141 N619AA 
##  4 B6         725 N804JB 
##  5 DL         461 N668DN 
##  6 UA        1696 N39463 
##  7 B6         507 N516JB 
##  8 EV        5708 N829AS 
##  9 B6          79 N593JB 
## 10 AA         301 N3ALAA 
## # ... with 336,766 more rows

# select() can be used to rename columns, though all columns not mentioned are dropped
flights %>% select(tail = tailnum)

## # A tibble: 336,776 x 1
##    tail  
##    <chr> 
##  1 N14228
##  2 N24211
##  3 N619AA
##  4 N804JB
##  5 N668DN
##  6 N39463
##  7 N516JB
##  8 N829AS
##  9 N593JB
## 10 N3ALAA
## # ... with 336,766 more rows

# rename() does the same thing, except all columns not mentioned are kept
flights %>% rename(tail = tailnum)

## # A tibble: 336,776 x 19
##     year month   day dep_time sched_dep_time dep_delay arr_time sched_arr_time
##    <int> <int> <int>    <int>          <int>     <dbl>    <int>          <int>
##  1  2013     1     1      517            515         2      830            819
##  2  2013     1     1      533            529         4      850            830
##  3  2013     1     1      542            540         2      923            850
##  4  2013     1     1      544            545        -1     1004           1022
##  5  2013     1     1      554            600        -6      812            837
##  6  2013     1     1      554            558        -4      740            728
##  7  2013     1     1      555            600        -5      913            854
##  8  2013     1     1      557            600        -3      709            723
##  9  2013     1     1      557            600        -3      838            846
## 10  2013     1     1      558            600        -2      753            745
## # ... with 336,766 more rows, and 11 more variables: arr_delay <dbl>,
## #   carrier <chr>, flight <int>, tail <chr>, origin <chr>, dest <chr>,
## #   air_time <dbl>, distance <dbl>, hour <dbl>, minute <dbl>, time_hour <dttm>

8.6 Choosing rows: filter, between, slice, sample_n, top_n, distinct

# filter() supports the use of multiple conditions
flights %>% filter(dep_time >= 600, dep_time <= 605)

## # A tibble: 2,460 x 19
##     year month   day dep_time sched_dep_time dep_delay arr_time sched_arr_time
##    <int> <int> <int>    <int>          <int>     <dbl>    <int>          <int>
##  1  2013     1     1      600            600         0      851            858
##  2  2013     1     1      600            600         0      837            825
##  3  2013     1     1      601            600         1      844            850
##  4  2013     1     1      602            610        -8      812            820
##  5  2013     1     1      602            605        -3      821            805
##  6  2013     1     2      600            600         0      814            749
##  7  2013     1     2      600            605        -5      751            818
##  8  2013     1     2      600            600         0      819            815
##  9  2013     1     2      600            600         0      846            846
## 10  2013     1     2      600            600         0      737            725
## # ... with 2,450 more rows, and 11 more variables: arr_delay <dbl>,
## #   carrier <chr>, flight <int>, tailnum <chr>, origin <chr>, dest <chr>,
## #   air_time <dbl>, distance <dbl>, hour <dbl>, minute <dbl>, time_hour <dttm>
…
# keep the first three rows within each group
flights %>% group_by(month, day) %>% slice(1:3)

## # A tibble: 1,095 x 19
## # Groups:   month, day [365]
##     year month   day dep_time sched_dep_time dep_delay arr_time sched_arr_time
##    <int> <int> <int>    <int>          <int>     <dbl>    <int>          <int>
##  1  2013     1     1      517            515         2      830            819
##  2  2013     1     1      533            529         4      850            830
##  3  2013     1     1      542            540         2      923            850
##  4  2013     1     2       42           2359        43      518            442
##  5  2013     1     2      126           2250       156      233           2359
##  6  2013     1     2      458            500        -2      703            650
##  7  2013     1     3       32           2359        33      504            442
##  8  2013     1     3       50           2145       185      203           2311
##  9  2013     1     3      235           2359       156      700            437
## 10  2013     1     4       25           2359        26      505            442
## # ... with 1,085 more rows, and 11 more variables: arr_delay <dbl>,
## #   carrier <chr>, flight <int>, tailnum <chr>, origin <chr>, dest <chr>,
## #   air_time <dbl>, distance <dbl>, hour <dbl>, minute <dbl>, time_hour <dttm>

# sample three rows from each group
flights %>% group_by(month, day) %>% sample_n(3)

## # A tibble: 1,095 x 19
## # Groups:   month, day [365]
##     year month   day dep_time sched_dep_time dep_delay arr_time sched_arr_time
##    <int> <int> <int>    <int>          <int>     <dbl>    <int>          <int>
##  1  2013     1     1     1350           1329        21     1504           1453
##  2  2013     1     1     2056           2100        -4     2240           2235
##  3  2013     1     1     1252           1245         7     1624           1550
##  4  2013     1     2      912            905         7     1114           1120
##  5  2013     1     2      815            815         0     1109           1128
##  6  2013     1     2     1753           1700        53     2052           2014
##  7  2013     1     3     1829           1815        14     1941           1930
##  8  2013     1     3     1504           1444        20     1846           1802
##  9  2013     1     3     1728           1729        -1     1900           1902
## 10  2013     1     4     1508           1515        -7     1656           1700
## # ... with 1,085 more rows, and 11 more variables: arr_delay <dbl>,
## #   carrier <chr>, flight <int>, tailnum <chr>, origin <chr>, dest <chr>,
## #   air_time <dbl>, distance <dbl>, hour <dbl>, minute <dbl>, time_hour <dttm>

# keep three rows from each group with the top dep_delay
flights %>% group_by(month, day) %>% top_n(3, dep_delay)

## # A tibble: 1,108 x 19
## # Groups:   month, day [365]
##     year month   day dep_time sched_dep_time dep_delay arr_time sched_arr_time
##    <int> <int> <int>    <int>          <int>     <dbl>    <int>          <int>
##  1  2013     1     1      848           1835       853     1001           1950
##  2  2013     1     1     1815           1325       290     2120           1542
##  3  2013     1     1     2343           1724       379      314           1938
##  4  2013     1     2     1412            838       334     1710           1147
##  5  2013     1     2     1607           1030       337     2003           1355
##  6  2013     1     2     2131           1512       379     2340           1741
##  7  2013     1     3     2008           1540       268     2339           1909
##  8  2013     1     3     2012           1600       252     2314           1857
##  9  2013     1     3     2056           1605       291     2239           1754
## 10  2013     1     4     2058           1730       208        2           2110
## # ... with 1,098 more rows, and 11 more variables: arr_delay <dbl>,
## #   carrier <chr>, flight <int>, tailnum <chr>, origin <chr>, dest <chr>,
## #   air_time <dbl>, distance <dbl>, hour <dbl>, minute <dbl>, time_hour <dttm>

# also sort by dep_delay within each group
flights %>% group_by(month, day) %>% top_n(3, dep_delay) %>% arrange(desc(dep_delay))

## # A tibble: 1,108 x 19
## # Groups:   month, day [365]
##     year month   day dep_time sched_dep_time dep_delay arr_time sched_arr_time
##    <int> <int> <int>    <int>          <int>     <dbl>    <int>          <int>
##  1  2013     1     9      641            900      1301     1242           1530
##  2  2013     6    15     1432           1935      1137     1607           2120
##  3  2013     1    10     1121           1635      1126     1239           1810
##  4  2013     9    20     1139           1845      1014     1457           2210
##  5  2013     7    22      845           1600      1005     1044           1815
##  6  2013     4    10     1100           1900       960     1342           2211
##  7  2013     3    17     2321            810       911      135           1020
##  8  2013     6    27      959           1900       899     1236           2226
##  9  2013     7    22     2257            759       898      121           1026
## 10  2013    12     5      756           1700       896     1058           2020
## # ... with 1,098 more rows, and 11 more variables: arr_delay <dbl>,
## #   carrier <chr>, flight <int>, tailnum <chr>, origin <chr>, dest <chr>,
## #   air_time <dbl>, distance <dbl>, hour <dbl>, minute <dbl>, time_hour <dttm>

# unique rows can be identified using unique() from base R
flights %>% select(origin, dest) %>% unique()

## # A tibble: 224 x 2
##    origin dest 
##    <chr>  <chr>
##  1 EWR    IAH  
##  2 LGA    IAH  
##  3 JFK    MIA  
##  4 JFK    BQN  
##  5 LGA    ATL  
##  6 EWR    ORD  
##  7 EWR    FLL  
##  8 LGA    IAD  
##  9 JFK    MCO  
## 10 LGA    ORD  
## # ... with 214 more rows

# dplyr provides an alternative that is more "efficient"
flights %>% select(origin, dest) %>% distinct()

# side note: when chaining, you don't have to include the parentheses if there are no arguments
flights %>% select(origin, dest) %>% distinct

8.7 Adding new variables: mutate, transmute, add_rownames

# mutate() creates a new variable (and keeps all existing variables)
flights %>% mutate(speed = distance/air_time*60)

## # A tibble: 336,776 x 20
##     year month   day dep_time sched_dep_time dep_delay arr_time sched_arr_time
##    <int> <int> <int>    <int>          <int>     <dbl>    <int>          <int>
##  1  2013     1     1      517            515         2      830            819
##  2  2013     1     1      533            529         4      850            830
##  3  2013     1     1      542            540         2      923            850
##  4  2013     1     1      544            545        -1     1004           1022
##  5  2013     1     1      554            600        -6      812            837
##  6  2013     1     1      554            558        -4      740            728
##  7  2013     1     1      555            600        -5      913            854
##  8  2013     1     1      557            600        -3      709            723
##  9  2013     1     1      557            600        -3      838            846
## 10  2013     1     1      558            600        -2      753            745
## # ... with 336,766 more rows, and 12 more variables: arr_delay <dbl>,
## #   carrier <chr>, flight <int>, tailnum <chr>, origin <chr>, dest <chr>,
## #   air_time <dbl>, distance <dbl>, hour <dbl>, minute <dbl>, time_hour <dttm>,
## #   speed <dbl>

# transmute() only keeps the new variables
flights %>% transmute(speed = distance/air_time*60)

## # A tibble: 336,776 x 1
##    speed
##    <dbl>
##  1  370.
##  2  374.
##  3  408.
##  4  517.
##  5  394.
##  6  288.
##  7  404.
##  8  259.
##  9  405.
## 10  319.
## # ... with 336,766 more rows
…
# side note: dplyr no longer prints row names (ever) for local data frames
mtcars %>% tbl_df()

## Warning: `tbl_df()` was deprecated in dplyr 1.0.0.
## Please use `tibble::as_tibble()` instead.
## This warning is displayed once every 8 hours.
## Call `lifecycle::last_lifecycle_warnings()` to see where this warning was generated.

## # A tibble: 32 x 11
##      mpg   cyl  disp    hp  drat    wt  qsec    vs    am  gear  carb
##    <dbl> <dbl> <dbl> <dbl> <dbl> <dbl> <dbl> <dbl> <dbl> <dbl> <dbl>
##  1  21       6  160    110  3.9   2.62  16.5     0     1     4     4
##  2  21       6  160    110  3.9   2.88  17.0     0     1     4     4
##  3  22.8     4  108     93  3.85  2.32  18.6     1     1     4     1
##  4  21.4     6  258    110  3.08  3.22  19.4     1     0     3     1
##  5  18.7     8  360    175  3.15  3.44  17.0     0     0     3     2
##  6  18.1     6  225    105  2.76  3.46  20.2     1     0     3     1
##  7  14.3     8  360    245  3.21  3.57  15.8     0     0     3     4
##  8  24.4     4  147.    62  3.69  3.19  20       1     0     4     2
##  9  22.8     4  141.    95  3.92  3.15  22.9     1     0     4     2
## 10  19.2     6  168.   123  3.92  3.44  18.3     1     0     4     4
## # ... with 22 more rows
…
##  [1] 27004 24951 28834 28330 28796 28243 29425 29327 27574 28889 27268 28135

# n_groups() simply reports the number of groups
flights %>% group_by(month) %>% n_groups()

## [1] 12

# group by two variables, summarise, arrange (output is possibly confusing)
flights %>% group_by(month, day) %>% summarise(cnt = n()) %>% arrange(desc(cnt)) %>% print(n = 40)

## `summarise()` has grouped output by 'month'. You can override using the `.groups` argument.

## # A tibble: 365 x 3
## # Groups:   month [12]
##    month   day   cnt
##    <int> <int> <int>
##  1    11    27  1014
##  2     7    11  1006
##  3     7     8  1004
##  4     7    10  1004
##  5    12     2  1004
##  6     7    18  1003
##  7     7    25  1003
##  8     7    12  1002
##  9     7     9  1001
## 10     7    17  1001
## 11     7    31  1001
## 12     8     7  1001
## 13     8     8  1001
## 14     8    12  1001
## 15     7    22  1000
## 16     7    24  1000
## 17     8     1  1000
## 18     8     5  1000
## 19     8    15  1000
## 20    11    21  1000
## 21     7    15   999
## 22     7    19   999
## 23     7    26   999
## 24     7    29   999
## 25     8     2   999
## 26     8     9   999
## 27    11    22   999
## 28     8    16   998
## 29     7    23   997
## 30     7    30   997
## 31     8    14   997
## 32     7    16   996
## 33     8     6   996
## 34     8    19   996
## 35     9    13   996
## 36     9    26   996
## 37     9    27   996
## 38     4    15   995
## 39     6    20   995
## 40     6    26   995
## # ... with 325 more rows

# ungroup() before arranging to arrange across all groups
flights %>% group_by(month, day) %>% summarise(cnt = n()) %>% ungroup() %>% arrange(desc(cnt))

## `summarise()` has grouped output by 'month'. You can override using the `.groups` argument.

## # A tibble: 365 x 3
##    month   day   cnt
##    <int> <int> <int>
##  1    11    27  1014
##  2     7    11  1006
##  3     7     8  1004
##  4     7    10  1004
##  5    12     2  1004
##  6     7    18  1003
##  7     7    25  1003
##  8     7    12  1002
##  9     7     9  1001
## 10     7    17  1001
## # ... with 355 more rows
…
# specify that the join should occur by matching "color" in "a" with "col" in "b"
inner_join(a, b, by=c("color" = "col"))

## # A tibble: 2 x 3
##   color    num size 
##   <chr>  <int> <chr>
## 1 green      1 S    
## 2 yellow     2 M

8.11 Viewing more output: print, View

# specify that you want to see more rows
flights %>% print(n = 15)

## # A tibble: 336,776 x 19
##     year month   day dep_time sched_dep_time dep_delay arr_time sched_arr_time
##    <int> <int> <int>    <int>          <int>     <dbl>    <int>          <int>
##  1  2013     1     1      517            515         2      830            819
##  2  2013     1     1      533            529         4      850            830
##  3  2013     1     1      542            540         2      923            850
##  4  2013     1     1      544            545        -1     1004           1022
##  5  2013     1     1      554            600        -6      812            837
##  6  2013     1     1      554            558        -4      740            728
##  7  2013     1     1      555            600        -5      913            854
##  8  2013     1     1      557            600        -3      709            723
##  9  2013     1     1      557            600        -3      838            846
## 10  2013     1     1      558            600        -2      753            745
## 11  2013     1     1      558            600        -2      849            851
## 12  2013     1     1      558            600        -2      853            856
## 13  2013     1     1      558            600        -2      924            917
## 14  2013     1     1      558            600        -2      923            937
## 15  2013     1     1      559            600        -1      941            910
## # ... with 336,761 more rows, and 11 more variables: arr_delay <dbl>,
## #   carrier <chr>, flight <int>, tailnum <chr>, origin <chr>, dest <chr>,
## #   air_time <dbl>, distance <dbl>, hour <dbl>, minute <dbl>, time_hour <dttm>
…
